
===================2024-06-03 11:12:36========================
CPU Load Percentage: 7%
Free Physical Memory: 9191748 KB
Total Visible Memory: 16615192 KB
GPU Usage:
Mon Jun  3 11:12:36 2024        +-----------------------------------------------------------------------------------------+ | NVIDIA-SMI 555.85                 Driver Version: 555.85         CUDA Version: 12.5     | |-----------------------------------------+------------------------+----------------------+ | GPU  Name                  Driver-Model | Bus-Id          Disp.A | Volatile Uncorr. ECC | | Fan  Temp   Perf          Pwr:Usage/Cap |           Memory-Usage | GPU-Util  Compute M. | |                                         |                        |               MIG M. | |=========================================+========================+======================| |   0  NVIDIA GeForce RTX 4080 ...  WDDM  |   00000000:01:00.0  On |                  N/A | |  0%   39C    P8             12W /  320W |    1120MiB /  16376MiB |      0%      Default | |                                         |                        |                  N/A | +-----------------------------------------+------------------------+----------------------+                                                                                           +-----------------------------------------------------------------------------------------+ | Processes:                                                                              | |  GPU   GI   CI        PID   Type   Process name                              GPU Memory | |        ID   ID                                                               Usage      | |=========================================================================================| |    0   N/A  N/A      3900    C+G   ...oogle\Chrome\Application\chrome.exe      N/A      | |    0   N/A  N/A      4468    C+G   ...2.0_x64__cv1g1gvanyjgm\WhatsApp.exe      N/A      | |    0   N/A  N/A      5128    C+G   ...nt.CBS_cw5n1h2txyewy\SearchHost.exe      N/A      | |    0   N/A  N/A      6284    C+G   ....0_x64__kzh8wxbdkxb8p\DCv2\DCv2.exe      N/A      | |    0   N/A  N/A      6936    C+G   ...5n1h2txyewy\ShellExperienceHost.exe      N/A      | |    0   N/A  N/A      8480    C+G   ...GeForce Experience\NVIDIA Share.exe      N/A      | |    0   N/A  N/A     10492    C+G   ...on\125.0.2535.79\msedgewebview2.exe      N/A      | |    0   N/A  N/A     10752    C+G   ...Programs\Microsoft VS Code\Code.exe      N/A      | |    0   N/A  N/A     11308    C+G   C:\Windows\explorer.exe                     N/A      | |    0   N/A  N/A     11372    C+G   ...R\AppData\Roaming\Zoom\bin\Zoom.exe      N/A      | |    0   N/A  N/A     12088    C+G   ...siveControlPanel\SystemSettings.exe      N/A      | |    0   N/A  N/A     13252    C+G   ...CBS_cw5n1h2txyewy\TextInputHost.exe      N/A      | |    0   N/A  N/A     14448    C+G   ...ekyb3d8bbwe\PhoneExperienceHost.exe      N/A      | |    0   N/A  N/A     15364    C+G   ...on\125.0.2535.79\msedgewebview2.exe      N/A      | |    0   N/A  N/A     17432    C+G   ...GeForce Experience\NVIDIA Share.exe      N/A      | |    0   N/A  N/A     17496    C+G   ...2txyewy\StartMenuExperienceHost.exe      N/A      | |    0   N/A  N/A     18272    C+G   ...oogle\Chrome\Application\chrome.exe      N/A      | |    0   N/A  N/A     19392    C+G   ...crosoft\Edge\Application\msedge.exe      N/A      | |    0   N/A  N/A     22368    C+G   ...__8wekyb3d8bbwe\WindowsTerminal.exe      N/A      | +-----------------------------------------------------------------------------------------+
Terminal application is not running.
Python File :No Python process is running.
===========================END===================

===================2024-06-03 11:13:31========================
CPU Load Percentage: 6%
Free Physical Memory: 9179272 KB
Total Visible Memory: 16615192 KB
GPU Usage:
Mon Jun  3 11:13:31 2024        +-----------------------------------------------------------------------------------------+ | NVIDIA-SMI 555.85                 Driver Version: 555.85         CUDA Version: 12.5     | |-----------------------------------------+------------------------+----------------------+ | GPU  Name                  Driver-Model | Bus-Id          Disp.A | Volatile Uncorr. ECC | | Fan  Temp   Perf          Pwr:Usage/Cap |           Memory-Usage | GPU-Util  Compute M. | |                                         |                        |               MIG M. | |=========================================+========================+======================| |   0  NVIDIA GeForce RTX 4080 ...  WDDM  |   00000000:01:00.0  On |                  N/A | |  0%   39C    P8             12W /  320W |    1150MiB /  16376MiB |      0%      Default | |                                         |                        |                  N/A | +-----------------------------------------+------------------------+----------------------+                                                                                           +-----------------------------------------------------------------------------------------+ | Processes:                                                                              | |  GPU   GI   CI        PID   Type   Process name                              GPU Memory | |        ID   ID                                                               Usage      | |=========================================================================================| |    0   N/A  N/A      3900    C+G   ...oogle\Chrome\Application\chrome.exe      N/A      | |    0   N/A  N/A      4468    C+G   ...2.0_x64__cv1g1gvanyjgm\WhatsApp.exe      N/A      | |    0   N/A  N/A      5128    C+G   ...nt.CBS_cw5n1h2txyewy\SearchHost.exe      N/A      | |    0   N/A  N/A      6284    C+G   ....0_x64__kzh8wxbdkxb8p\DCv2\DCv2.exe      N/A      | |    0   N/A  N/A      6936    C+G   ...5n1h2txyewy\ShellExperienceHost.exe      N/A      | |    0   N/A  N/A      8480    C+G   ...GeForce Experience\NVIDIA Share.exe      N/A      | |    0   N/A  N/A     10492    C+G   ...on\125.0.2535.79\msedgewebview2.exe      N/A      | |    0   N/A  N/A     10752    C+G   ...Programs\Microsoft VS Code\Code.exe      N/A      | |    0   N/A  N/A     11308    C+G   C:\Windows\explorer.exe                     N/A      | |    0   N/A  N/A     11372    C+G   ...R\AppData\Roaming\Zoom\bin\Zoom.exe      N/A      | |    0   N/A  N/A     12088    C+G   ...siveControlPanel\SystemSettings.exe      N/A      | |    0   N/A  N/A     13252    C+G   ...CBS_cw5n1h2txyewy\TextInputHost.exe      N/A      | |    0   N/A  N/A     14448    C+G   ...ekyb3d8bbwe\PhoneExperienceHost.exe      N/A      | |    0   N/A  N/A     15364    C+G   ...on\125.0.2535.79\msedgewebview2.exe      N/A      | |    0   N/A  N/A     17432    C+G   ...GeForce Experience\NVIDIA Share.exe      N/A      | |    0   N/A  N/A     17496    C+G   ...2txyewy\StartMenuExperienceHost.exe      N/A      | |    0   N/A  N/A     18272    C+G   ...oogle\Chrome\Application\chrome.exe      N/A      | |    0   N/A  N/A     19392    C+G   ...crosoft\Edge\Application\msedge.exe      N/A      | |    0   N/A  N/A     22368    C+G   ...__8wekyb3d8bbwe\WindowsTerminal.exe      N/A      | +-----------------------------------------------------------------------------------------+
cmd: Terminal application is not running.
Python File :No Python process is running.
===========================END===================

===================2024-06-03 11:14:53========================
CPU Load Percentage: 3%
Free Physical Memory: 9187308 KB
Total Visible Memory: 16615192 KB
GPU Usage:
Mon Jun  3 11:14:53 2024        +-----------------------------------------------------------------------------------------+ | NVIDIA-SMI 555.85                 Driver Version: 555.85         CUDA Version: 12.5     | |-----------------------------------------+------------------------+----------------------+ | GPU  Name                  Driver-Model | Bus-Id          Disp.A | Volatile Uncorr. ECC | | Fan  Temp   Perf          Pwr:Usage/Cap |           Memory-Usage | GPU-Util  Compute M. | |                                         |                        |               MIG M. | |=========================================+========================+======================| |   0  NVIDIA GeForce RTX 4080 ...  WDDM  |   00000000:01:00.0  On |                  N/A | |  0%   39C    P8             12W /  320W |    1141MiB /  16376MiB |      0%      Default | |                                         |                        |                  N/A | +-----------------------------------------+------------------------+----------------------+                                                                                           +-----------------------------------------------------------------------------------------+ | Processes:                                                                              | |  GPU   GI   CI        PID   Type   Process name                              GPU Memory | |        ID   ID                                                               Usage      | |=========================================================================================| |    0   N/A  N/A      3900    C+G   ...oogle\Chrome\Application\chrome.exe      N/A      | |    0   N/A  N/A      4468    C+G   ...2.0_x64__cv1g1gvanyjgm\WhatsApp.exe      N/A      | |    0   N/A  N/A      5128    C+G   ...nt.CBS_cw5n1h2txyewy\SearchHost.exe      N/A      | |    0   N/A  N/A      6284    C+G   ....0_x64__kzh8wxbdkxb8p\DCv2\DCv2.exe      N/A      | |    0   N/A  N/A      6936    C+G   ...5n1h2txyewy\ShellExperienceHost.exe      N/A      | |    0   N/A  N/A      8480    C+G   ...GeForce Experience\NVIDIA Share.exe      N/A      | |    0   N/A  N/A     10492    C+G   ...on\125.0.2535.79\msedgewebview2.exe      N/A      | |    0   N/A  N/A     10752    C+G   ...Programs\Microsoft VS Code\Code.exe      N/A      | |    0   N/A  N/A     11308    C+G   C:\Windows\explorer.exe                     N/A      | |    0   N/A  N/A     11372    C+G   ...R\AppData\Roaming\Zoom\bin\Zoom.exe      N/A      | |    0   N/A  N/A     12088    C+G   ...siveControlPanel\SystemSettings.exe      N/A      | |    0   N/A  N/A     13252    C+G   ...CBS_cw5n1h2txyewy\TextInputHost.exe      N/A      | |    0   N/A  N/A     14448    C+G   ...ekyb3d8bbwe\PhoneExperienceHost.exe      N/A      | |    0   N/A  N/A     15364    C+G   ...on\125.0.2535.79\msedgewebview2.exe      N/A      | |    0   N/A  N/A     17432    C+G   ...GeForce Experience\NVIDIA Share.exe      N/A      | |    0   N/A  N/A     17496    C+G   ...2txyewy\StartMenuExperienceHost.exe      N/A      | |    0   N/A  N/A     18272    C+G   ...oogle\Chrome\Application\chrome.exe      N/A      | |    0   N/A  N/A     19392    C+G   ...crosoft\Edge\Application\msedge.exe      N/A      | |    0   N/A  N/A     22368    C+G   ...__8wekyb3d8bbwe\WindowsTerminal.exe      N/A      | +-----------------------------------------------------------------------------------------+
cmd: Terminal application is not running.
Python File :No Python process is running.
===========================END===================

===================2024-06-03 11:25:47========================
CPU Load Percentage: 4%
Free Physical Memory: 8990148 KB
Total Visible Memory: 16615192 KB
GPU Usage:
Mon Jun  3 11:25:47 2024        +-----------------------------------------------------------------------------------------+ | NVIDIA-SMI 555.85                 Driver Version: 555.85         CUDA Version: 12.5     | |-----------------------------------------+------------------------+----------------------+ | GPU  Name                  Driver-Model | Bus-Id          Disp.A | Volatile Uncorr. ECC | | Fan  Temp   Perf          Pwr:Usage/Cap |           Memory-Usage | GPU-Util  Compute M. | |                                         |                        |               MIG M. | |=========================================+========================+======================| |   0  NVIDIA GeForce RTX 4080 ...  WDDM  |   00000000:01:00.0  On |                  N/A | |  0%   39C    P0             39W /  320W |    1135MiB /  16376MiB |      0%      Default | |                                         |                        |                  N/A | +-----------------------------------------+------------------------+----------------------+                                                                                           +-----------------------------------------------------------------------------------------+ | Processes:                                                                              | |  GPU   GI   CI        PID   Type   Process name                              GPU Memory | |        ID   ID                                                               Usage      | |=========================================================================================| |    0   N/A  N/A      1968    C+G   ...__8wekyb3d8bbwe\WindowsTerminal.exe      N/A      | |    0   N/A  N/A      3900    C+G   ...oogle\Chrome\Application\chrome.exe      N/A      | |    0   N/A  N/A      4468    C+G   ...2.0_x64__cv1g1gvanyjgm\WhatsApp.exe      N/A      | |    0   N/A  N/A      5128    C+G   ...nt.CBS_cw5n1h2txyewy\SearchHost.exe      N/A      | |    0   N/A  N/A      6284    C+G   ....0_x64__kzh8wxbdkxb8p\DCv2\DCv2.exe      N/A      | |    0   N/A  N/A      6936    C+G   ...5n1h2txyewy\ShellExperienceHost.exe      N/A      | |    0   N/A  N/A      8480    C+G   ...GeForce Experience\NVIDIA Share.exe      N/A      | |    0   N/A  N/A     10492    C+G   ...on\125.0.2535.79\msedgewebview2.exe      N/A      | |    0   N/A  N/A     10752    C+G   ...Programs\Microsoft VS Code\Code.exe      N/A      | |    0   N/A  N/A     11308    C+G   C:\Windows\explorer.exe                     N/A      | |    0   N/A  N/A     11372    C+G   ...R\AppData\Roaming\Zoom\bin\Zoom.exe      N/A      | |    0   N/A  N/A     12088    C+G   ...siveControlPanel\SystemSettings.exe      N/A      | |    0   N/A  N/A     13252    C+G   ...CBS_cw5n1h2txyewy\TextInputHost.exe      N/A      | |    0   N/A  N/A     14448    C+G   ...ekyb3d8bbwe\PhoneExperienceHost.exe      N/A      | |    0   N/A  N/A     15364    C+G   ...on\125.0.2535.79\msedgewebview2.exe      N/A      | |    0   N/A  N/A     17432    C+G   ...GeForce Experience\NVIDIA Share.exe      N/A      | |    0   N/A  N/A     17496    C+G   ...2txyewy\StartMenuExperienceHost.exe      N/A      | |    0   N/A  N/A     18272    C+G   ...oogle\Chrome\Application\chrome.exe      N/A      | |    0   N/A  N/A     19392    C+G   ...crosoft\Edge\Application\msedge.exe      N/A      | +-----------------------------------------------------------------------------------------+
cmd: Terminal application is not running.
Python File :No Python process is running.
===========================END===================

===================2024-06-03 11:30:47========================
CPU Load Percentage: 18%
Free Physical Memory: 5923948 KB
Total Visible Memory: 16615192 KB
GPU Usage:
Mon Jun  3 11:30:47 2024        +-----------------------------------------------------------------------------------------+ | NVIDIA-SMI 555.85                 Driver Version: 555.85         CUDA Version: 12.5     | |-----------------------------------------+------------------------+----------------------+ | GPU  Name                  Driver-Model | Bus-Id          Disp.A | Volatile Uncorr. ECC | | Fan  Temp   Perf          Pwr:Usage/Cap |           Memory-Usage | GPU-Util  Compute M. | |                                         |                        |               MIG M. | |=========================================+========================+======================| |   0  NVIDIA GeForce RTX 4080 ...  WDDM  |   00000000:01:00.0  On |                  N/A | |  0%   44C    P2             48W /  320W |    2765MiB /  16376MiB |     10%      Default | |                                         |                        |                  N/A | +-----------------------------------------+------------------------+----------------------+                                                                                           +-----------------------------------------------------------------------------------------+ | Processes:                                                                              | |  GPU   GI   CI        PID   Type   Process name                              GPU Memory | |        ID   ID                                                               Usage      | |=========================================================================================| |    0   N/A  N/A      2408    C+G   ...__8wekyb3d8bbwe\WindowsTerminal.exe      N/A      | |    0   N/A  N/A      3900    C+G   ...oogle\Chrome\Application\chrome.exe      N/A      | |    0   N/A  N/A      4468    C+G   ...2.0_x64__cv1g1gvanyjgm\WhatsApp.exe      N/A      | |    0   N/A  N/A      5128    C+G   ...nt.CBS_cw5n1h2txyewy\SearchHost.exe      N/A      | |    0   N/A  N/A      6284    C+G   ....0_x64__kzh8wxbdkxb8p\DCv2\DCv2.exe      N/A      | |    0   N/A  N/A      6936    C+G   ...5n1h2txyewy\ShellExperienceHost.exe      N/A      | |    0   N/A  N/A      8480    C+G   ...GeForce Experience\NVIDIA Share.exe      N/A      | |    0   N/A  N/A     10492    C+G   ...on\125.0.2535.79\msedgewebview2.exe      N/A      | |    0   N/A  N/A     10752    C+G   ...Programs\Microsoft VS Code\Code.exe      N/A      | |    0   N/A  N/A     11308    C+G   C:\Windows\explorer.exe                     N/A      | |    0   N/A  N/A     11372    C+G   ...R\AppData\Roaming\Zoom\bin\Zoom.exe      N/A      | |    0   N/A  N/A     12088    C+G   ...siveControlPanel\SystemSettings.exe      N/A      | |    0   N/A  N/A     13252    C+G   ...CBS_cw5n1h2txyewy\TextInputHost.exe      N/A      | |    0   N/A  N/A     14448    C+G   ...ekyb3d8bbwe\PhoneExperienceHost.exe      N/A      | |    0   N/A  N/A     15364    C+G   ...on\125.0.2535.79\msedgewebview2.exe      N/A      | |    0   N/A  N/A     17432    C+G   ...GeForce Experience\NVIDIA Share.exe      N/A      | |    0   N/A  N/A     17496    C+G   ...2txyewy\StartMenuExperienceHost.exe      N/A      | |    0   N/A  N/A     18272    C+G   ...oogle\Chrome\Application\chrome.exe      N/A      | |    0   N/A  N/A     19392    C+G   ...crosoft\Edge\Application\msedge.exe      N/A      | |    0   N/A  N/A     22172      C   C:\Users\USER\anaconda3\python.exe          N/A      | +-----------------------------------------------------------------------------------------+
List of terminal processes:
Process Name: cmd | ID: 15120 | Window Title: 
Process Name: cmd | ID: 15192 | Window Title: 
Process Name: cmd | ID: 18692 | Window Title: 
Process Name: cmd | ID: 21076 | Window Title: 
Python File :Python process is running.
===========================END===================

===================2024-06-03 11:40:47========================
CPU Load Percentage: 29%
Free Physical Memory: 5778256 KB
Total Visible Memory: 16615192 KB
GPU Usage:
Mon Jun  3 11:40:47 2024        +-----------------------------------------------------------------------------------------+ | NVIDIA-SMI 555.85                 Driver Version: 555.85         CUDA Version: 12.5     | |-----------------------------------------+------------------------+----------------------+ | GPU  Name                  Driver-Model | Bus-Id          Disp.A | Volatile Uncorr. ECC | | Fan  Temp   Perf          Pwr:Usage/Cap |           Memory-Usage | GPU-Util  Compute M. | |                                         |                        |               MIG M. | |=========================================+========================+======================| |   0  NVIDIA GeForce RTX 4080 ...  WDDM  |   00000000:01:00.0  On |                  N/A | |  0%   46C    P2             49W /  320W |    2763MiB /  16376MiB |     10%      Default | |                                         |                        |                  N/A | +-----------------------------------------+------------------------+----------------------+                                                                                           +-----------------------------------------------------------------------------------------+ | Processes:                                                                              | |  GPU   GI   CI        PID   Type   Process name                              GPU Memory | |        ID   ID                                                               Usage      | |=========================================================================================| |    0   N/A  N/A      2408    C+G   ...__8wekyb3d8bbwe\WindowsTerminal.exe      N/A      | |    0   N/A  N/A      3900    C+G   ...oogle\Chrome\Application\chrome.exe      N/A      | |    0   N/A  N/A      4468    C+G   ...2.0_x64__cv1g1gvanyjgm\WhatsApp.exe      N/A      | |    0   N/A  N/A      5128    C+G   ...nt.CBS_cw5n1h2txyewy\SearchHost.exe      N/A      | |    0   N/A  N/A      6284    C+G   ....0_x64__kzh8wxbdkxb8p\DCv2\DCv2.exe      N/A      | |    0   N/A  N/A      6936    C+G   ...5n1h2txyewy\ShellExperienceHost.exe      N/A      | |    0   N/A  N/A      8480    C+G   ...GeForce Experience\NVIDIA Share.exe      N/A      | |    0   N/A  N/A     10492    C+G   ...on\125.0.2535.79\msedgewebview2.exe      N/A      | |    0   N/A  N/A     10752    C+G   ...Programs\Microsoft VS Code\Code.exe      N/A      | |    0   N/A  N/A     11308    C+G   C:\Windows\explorer.exe                     N/A      | |    0   N/A  N/A     11372    C+G   ...R\AppData\Roaming\Zoom\bin\Zoom.exe      N/A      | |    0   N/A  N/A     13252    C+G   ...CBS_cw5n1h2txyewy\TextInputHost.exe      N/A      | |    0   N/A  N/A     14448    C+G   ...ekyb3d8bbwe\PhoneExperienceHost.exe      N/A      | |    0   N/A  N/A     15364    C+G   ...on\125.0.2535.79\msedgewebview2.exe      N/A      | |    0   N/A  N/A     17432    C+G   ...GeForce Experience\NVIDIA Share.exe      N/A      | |    0   N/A  N/A     17496    C+G   ...2txyewy\StartMenuExperienceHost.exe      N/A      | |    0   N/A  N/A     18272    C+G   ...oogle\Chrome\Application\chrome.exe      N/A      | |    0   N/A  N/A     19392    C+G   ...crosoft\Edge\Application\msedge.exe      N/A      | |    0   N/A  N/A     22172      C   C:\Users\USER\anaconda3\python.exe          N/A      | +-----------------------------------------------------------------------------------------+
List of terminal processes:
Process Name: cmd | ID: 15120 | Window Title: 
Process Name: cmd | ID: 15192 | Window Title: 
Process Name: cmd | ID: 18692 | Window Title: 
Process Name: cmd | ID: 21076 | Window Title: 
Python File :Python process is running.
===========================END===================

===================2024-06-03 11:41:48========================
CPU Load Percentage: 9%
Free Physical Memory: 5753184 KB
Total Visible Memory: 16615192 KB
GPU Usage:
Mon Jun  3 11:41:48 2024        +-----------------------------------------------------------------------------------------+ | NVIDIA-SMI 555.85                 Driver Version: 555.85         CUDA Version: 12.5     | |-----------------------------------------+------------------------+----------------------+ | GPU  Name                  Driver-Model | Bus-Id          Disp.A | Volatile Uncorr. ECC | | Fan  Temp   Perf          Pwr:Usage/Cap |           Memory-Usage | GPU-Util  Compute M. | |                                         |                        |               MIG M. | |=========================================+========================+======================| |   0  NVIDIA GeForce RTX 4080 ...  WDDM  |   00000000:01:00.0  On |                  N/A | |  0%   46C    P2             49W /  320W |    2768MiB /  16376MiB |     11%      Default | |                                         |                        |                  N/A | +-----------------------------------------+------------------------+----------------------+                                                                                           +-----------------------------------------------------------------------------------------+ | Processes:                                                                              | |  GPU   GI   CI        PID   Type   Process name                              GPU Memory | |        ID   ID                                                               Usage      | |=========================================================================================| |    0   N/A  N/A      2408    C+G   ...__8wekyb3d8bbwe\WindowsTerminal.exe      N/A      | |    0   N/A  N/A      3900    C+G   ...oogle\Chrome\Application\chrome.exe      N/A      | |    0   N/A  N/A      4468    C+G   ...2.0_x64__cv1g1gvanyjgm\WhatsApp.exe      N/A      | |    0   N/A  N/A      5128    C+G   ...nt.CBS_cw5n1h2txyewy\SearchHost.exe      N/A      | |    0   N/A  N/A      6284    C+G   ....0_x64__kzh8wxbdkxb8p\DCv2\DCv2.exe      N/A      | |    0   N/A  N/A      6936    C+G   ...5n1h2txyewy\ShellExperienceHost.exe      N/A      | |    0   N/A  N/A      8480    C+G   ...GeForce Experience\NVIDIA Share.exe      N/A      | |    0   N/A  N/A     10492    C+G   ...on\125.0.2535.79\msedgewebview2.exe      N/A      | |    0   N/A  N/A     10752    C+G   ...Programs\Microsoft VS Code\Code.exe      N/A      | |    0   N/A  N/A     11308    C+G   C:\Windows\explorer.exe                     N/A      | |    0   N/A  N/A     11372    C+G   ...R\AppData\Roaming\Zoom\bin\Zoom.exe      N/A      | |    0   N/A  N/A     13252    C+G   ...CBS_cw5n1h2txyewy\TextInputHost.exe      N/A      | |    0   N/A  N/A     14448    C+G   ...ekyb3d8bbwe\PhoneExperienceHost.exe      N/A      | |    0   N/A  N/A     15364    C+G   ...on\125.0.2535.79\msedgewebview2.exe      N/A      | |    0   N/A  N/A     17432    C+G   ...GeForce Experience\NVIDIA Share.exe      N/A      | |    0   N/A  N/A     17496    C+G   ...2txyewy\StartMenuExperienceHost.exe      N/A      | |    0   N/A  N/A     18272    C+G   ...oogle\Chrome\Application\chrome.exe      N/A      | |    0   N/A  N/A     19392    C+G   ...crosoft\Edge\Application\msedge.exe      N/A      | |    0   N/A  N/A     22172      C   C:\Users\USER\anaconda3\python.exe          N/A      | +-----------------------------------------------------------------------------------------+
List of terminal processes:
Process Name: cmd | ID: 15120 | Window Title: 
Process Name: cmd | ID: 15192 | Window Title: 
Process Name: cmd | ID: 18692 | Window Title: 
Process Name: cmd | ID: 21076 | Window Title: 
Python File :Python process is running.
===========================END===================
