
===================2024-06-06 08:52:20========================
CPU Load Percentage: 3%
Free Physical Memory: 9264688 KB
Total Visible Memory: 16615192 KB
GPU Usage:
Thu Jun  6 08:52:20 2024        +-----------------------------------------------------------------------------------------+ | NVIDIA-SMI 555.85                 Driver Version: 555.85         CUDA Version: 12.5     | |-----------------------------------------+------------------------+----------------------+ | GPU  Name                  Driver-Model | Bus-Id          Disp.A | Volatile Uncorr. ECC | | Fan  Temp   Perf          Pwr:Usage/Cap |           Memory-Usage | GPU-Util  Compute M. | |                                         |                        |               MIG M. | |=========================================+========================+======================| |   0  NVIDIA GeForce RTX 4080 ...  WDDM  |   00000000:01:00.0  On |                  N/A | |  0%   37C    P0             35W /  320W |     798MiB /  16376MiB |      0%      Default | |                                         |                        |                  N/A | +-----------------------------------------+------------------------+----------------------+                                                                                           +-----------------------------------------------------------------------------------------+ | Processes:                                                                              | |  GPU   GI   CI        PID   Type   Process name                              GPU Memory | |        ID   ID                                                               Usage      | |=========================================================================================| |    0   N/A  N/A      4472    C+G   ...nt.CBS_cw5n1h2txyewy\SearchHost.exe      N/A      | |    0   N/A  N/A      4588    C+G   C:\Windows\explorer.exe                     N/A      | |    0   N/A  N/A      6704    C+G   ...7.0_x64__cv1g1gvanyjgm\WhatsApp.exe      N/A      | |    0   N/A  N/A      8320    C+G   ...Programs\Microsoft VS Code\Code.exe      N/A      | |    0   N/A  N/A      9164    C+G   ...CBS_cw5n1h2txyewy\TextInputHost.exe      N/A      | |    0   N/A  N/A     10324    C+G   ...5n1h2txyewy\ShellExperienceHost.exe      N/A      | |    0   N/A  N/A     10644    C+G   ....0_x64__kzh8wxbdkxb8p\DCv2\DCv2.exe      N/A      | |    0   N/A  N/A     11368    C+G   ...siveControlPanel\SystemSettings.exe      N/A      | |    0   N/A  N/A     12812    C+G   ...on\125.0.2535.79\msedgewebview2.exe      N/A      | |    0   N/A  N/A     13396    C+G   ...on\125.0.2535.79\msedgewebview2.exe      N/A      | |    0   N/A  N/A     13732    C+G   ...R\AppData\Roaming\Zoom\bin\Zoom.exe      N/A      | |    0   N/A  N/A     14032    C+G   ...GeForce Experience\NVIDIA Share.exe      N/A      | |    0   N/A  N/A     16100    C+G   ...oogle\Chrome\Application\chrome.exe      N/A      | |    0   N/A  N/A     16692    C+G   ...2txyewy\StartMenuExperienceHost.exe      N/A      | |    0   N/A  N/A     18100    C+G   ...ekyb3d8bbwe\PhoneExperienceHost.exe      N/A      | |    0   N/A  N/A     18560    C+G   ...__8wekyb3d8bbwe\WindowsTerminal.exe      N/A      | |    0   N/A  N/A     18788    C+G   ...crosoft\Edge\Application\msedge.exe      N/A      | +-----------------------------------------------------------------------------------------+
cmd: Terminal application is not running.
Python File :No Python process is running.
===========================END===================

===================2024-06-06 08:59:55========================
CPU Load Percentage: 26%
Free Physical Memory: 9131076 KB
Total Visible Memory: 16615192 KB
GPU Usage:
Thu Jun  6 08:59:54 2024        +-----------------------------------------------------------------------------------------+ | NVIDIA-SMI 555.85                 Driver Version: 555.85         CUDA Version: 12.5     | |-----------------------------------------+------------------------+----------------------+ | GPU  Name                  Driver-Model | Bus-Id          Disp.A | Volatile Uncorr. ECC | | Fan  Temp   Perf          Pwr:Usage/Cap |           Memory-Usage | GPU-Util  Compute M. | |                                         |                        |               MIG M. | |=========================================+========================+======================| |   0  NVIDIA GeForce RTX 4080 ...  WDDM  |   00000000:01:00.0  On |                  N/A | |  0%   38C    P0             40W /  320W |     770MiB /  16376MiB |      0%      Default | |                                         |                        |                  N/A | +-----------------------------------------+------------------------+----------------------+                                                                                           +-----------------------------------------------------------------------------------------+ | Processes:                                                                              | |  GPU   GI   CI        PID   Type   Process name                              GPU Memory | |        ID   ID                                                               Usage      | |=========================================================================================| |    0   N/A  N/A      4472    C+G   ...nt.CBS_cw5n1h2txyewy\SearchHost.exe      N/A      | |    0   N/A  N/A      4588    C+G   C:\Windows\explorer.exe                     N/A      | |    0   N/A  N/A      6704    C+G   ...7.0_x64__cv1g1gvanyjgm\WhatsApp.exe      N/A      | |    0   N/A  N/A      8320    C+G   ...Programs\Microsoft VS Code\Code.exe      N/A      | |    0   N/A  N/A      9164    C+G   ...CBS_cw5n1h2txyewy\TextInputHost.exe      N/A      | |    0   N/A  N/A     10324    C+G   ...5n1h2txyewy\ShellExperienceHost.exe      N/A      | |    0   N/A  N/A     10644    C+G   ....0_x64__kzh8wxbdkxb8p\DCv2\DCv2.exe      N/A      | |    0   N/A  N/A     11368    C+G   ...siveControlPanel\SystemSettings.exe      N/A      | |    0   N/A  N/A     13396    C+G   ...on\125.0.2535.79\msedgewebview2.exe      N/A      | |    0   N/A  N/A     13732    C+G   ...R\AppData\Roaming\Zoom\bin\Zoom.exe      N/A      | |    0   N/A  N/A     14032    C+G   ...GeForce Experience\NVIDIA Share.exe      N/A      | |    0   N/A  N/A     16100    C+G   ...oogle\Chrome\Application\chrome.exe      N/A      | |    0   N/A  N/A     16116    C+G   ...on\125.0.2535.85\msedgewebview2.exe      N/A      | |    0   N/A  N/A     16692    C+G   ...2txyewy\StartMenuExperienceHost.exe      N/A      | |    0   N/A  N/A     18100    C+G   ...ekyb3d8bbwe\PhoneExperienceHost.exe      N/A      | |    0   N/A  N/A     18560    C+G   ...__8wekyb3d8bbwe\WindowsTerminal.exe      N/A      | |    0   N/A  N/A     18788    C+G   ...crosoft\Edge\Application\msedge.exe      N/A      | +-----------------------------------------------------------------------------------------+
cmd: Terminal application is not running.
Python File :No Python process is running.
===========================END===================

===================2024-06-06 09:00:11========================
CPU Load Percentage: 3%
Free Physical Memory: 9058840 KB
Total Visible Memory: 16615192 KB
GPU Usage:
Thu Jun  6 09:00:11 2024        +-----------------------------------------------------------------------------------------+ | NVIDIA-SMI 555.85                 Driver Version: 555.85         CUDA Version: 12.5     | |-----------------------------------------+------------------------+----------------------+ | GPU  Name                  Driver-Model | Bus-Id          Disp.A | Volatile Uncorr. ECC | | Fan  Temp   Perf          Pwr:Usage/Cap |           Memory-Usage | GPU-Util  Compute M. | |                                         |                        |               MIG M. | |=========================================+========================+======================| |   0  NVIDIA GeForce RTX 4080 ...  WDDM  |   00000000:01:00.0  On |                  N/A | |  0%   38C    P0             27W /  320W |     735MiB /  16376MiB |      0%      Default | |                                         |                        |                  N/A | +-----------------------------------------+------------------------+----------------------+                                                                                           +-----------------------------------------------------------------------------------------+ | Processes:                                                                              | |  GPU   GI   CI        PID   Type   Process name                              GPU Memory | |        ID   ID                                                               Usage      | |=========================================================================================| |    0   N/A  N/A      4472    C+G   ...nt.CBS_cw5n1h2txyewy\SearchHost.exe      N/A      | |    0   N/A  N/A      4588    C+G   C:\Windows\explorer.exe                     N/A      | |    0   N/A  N/A      6704    C+G   ...7.0_x64__cv1g1gvanyjgm\WhatsApp.exe      N/A      | |    0   N/A  N/A      8320    C+G   ...Programs\Microsoft VS Code\Code.exe      N/A      | |    0   N/A  N/A      9164    C+G   ...CBS_cw5n1h2txyewy\TextInputHost.exe      N/A      | |    0   N/A  N/A     10324    C+G   ...5n1h2txyewy\ShellExperienceHost.exe      N/A      | |    0   N/A  N/A     10644    C+G   ....0_x64__kzh8wxbdkxb8p\DCv2\DCv2.exe      N/A      | |    0   N/A  N/A     11368    C+G   ...siveControlPanel\SystemSettings.exe      N/A      | |    0   N/A  N/A     13396    C+G   ...on\125.0.2535.79\msedgewebview2.exe      N/A      | |    0   N/A  N/A     13732    C+G   ...R\AppData\Roaming\Zoom\bin\Zoom.exe      N/A      | |    0   N/A  N/A     14032    C+G   ...GeForce Experience\NVIDIA Share.exe      N/A      | |    0   N/A  N/A     16100    C+G   ...oogle\Chrome\Application\chrome.exe      N/A      | |    0   N/A  N/A     16116    C+G   ...on\125.0.2535.85\msedgewebview2.exe      N/A      | |    0   N/A  N/A     16692    C+G   ...2txyewy\StartMenuExperienceHost.exe      N/A      | |    0   N/A  N/A     18100    C+G   ...ekyb3d8bbwe\PhoneExperienceHost.exe      N/A      | |    0   N/A  N/A     18560    C+G   ...__8wekyb3d8bbwe\WindowsTerminal.exe      N/A      | |    0   N/A  N/A     19328    C+G   ...crosoft\Edge\Application\msedge.exe      N/A      | +-----------------------------------------------------------------------------------------+
cmd: Terminal application is not running.
Python File :No Python process is running.
===========================END===================

===================2024-06-06 09:00:21========================
CPU Load Percentage: 5%
Free Physical Memory: 8848140 KB
Total Visible Memory: 16615192 KB
GPU Usage:
Thu Jun  6 09:00:21 2024        +-----------------------------------------------------------------------------------------+ | NVIDIA-SMI 555.85                 Driver Version: 555.85         CUDA Version: 12.5     | |-----------------------------------------+------------------------+----------------------+ | GPU  Name                  Driver-Model | Bus-Id          Disp.A | Volatile Uncorr. ECC | | Fan  Temp   Perf          Pwr:Usage/Cap |           Memory-Usage | GPU-Util  Compute M. | |                                         |                        |               MIG M. | |=========================================+========================+======================| |   0  NVIDIA GeForce RTX 4080 ...  WDDM  |   00000000:01:00.0  On |                  N/A | |  0%   38C    P0             31W /  320W |     768MiB /  16376MiB |      0%      Default | |                                         |                        |                  N/A | +-----------------------------------------+------------------------+----------------------+                                                                                           +-----------------------------------------------------------------------------------------+ | Processes:                                                                              | |  GPU   GI   CI        PID   Type   Process name                              GPU Memory | |        ID   ID                                                               Usage      | |=========================================================================================| |    0   N/A  N/A      4472    C+G   ...nt.CBS_cw5n1h2txyewy\SearchHost.exe      N/A      | |    0   N/A  N/A      4588    C+G   C:\Windows\explorer.exe                     N/A      | |    0   N/A  N/A      6704    C+G   ...7.0_x64__cv1g1gvanyjgm\WhatsApp.exe      N/A      | |    0   N/A  N/A      8320    C+G   ...Programs\Microsoft VS Code\Code.exe      N/A      | |    0   N/A  N/A      9164    C+G   ...CBS_cw5n1h2txyewy\TextInputHost.exe      N/A      | |    0   N/A  N/A     10324    C+G   ...5n1h2txyewy\ShellExperienceHost.exe      N/A      | |    0   N/A  N/A     10644    C+G   ....0_x64__kzh8wxbdkxb8p\DCv2\DCv2.exe      N/A      | |    0   N/A  N/A     11368    C+G   ...siveControlPanel\SystemSettings.exe      N/A      | |    0   N/A  N/A     13396    C+G   ...on\125.0.2535.79\msedgewebview2.exe      N/A      | |    0   N/A  N/A     13732    C+G   ...R\AppData\Roaming\Zoom\bin\Zoom.exe      N/A      | |    0   N/A  N/A     14032    C+G   ...GeForce Experience\NVIDIA Share.exe      N/A      | |    0   N/A  N/A     16100    C+G   ...oogle\Chrome\Application\chrome.exe      N/A      | |    0   N/A  N/A     16116    C+G   ...on\125.0.2535.85\msedgewebview2.exe      N/A      | |    0   N/A  N/A     16692    C+G   ...2txyewy\StartMenuExperienceHost.exe      N/A      | |    0   N/A  N/A     18100    C+G   ...ekyb3d8bbwe\PhoneExperienceHost.exe      N/A      | |    0   N/A  N/A     18560    C+G   ...__8wekyb3d8bbwe\WindowsTerminal.exe      N/A      | |    0   N/A  N/A     19328    C+G   ...crosoft\Edge\Application\msedge.exe      N/A      | +-----------------------------------------------------------------------------------------+
cmd: Terminal application is not running.
Python File :No Python process is running.
===========================END===================

===================2024-06-06 09:00:29========================
CPU Load Percentage: 7%
Free Physical Memory: 9001028 KB
Total Visible Memory: 16615192 KB
GPU Usage:
Thu Jun  6 09:00:29 2024        +-----------------------------------------------------------------------------------------+ | NVIDIA-SMI 555.85                 Driver Version: 555.85         CUDA Version: 12.5     | |-----------------------------------------+------------------------+----------------------+ | GPU  Name                  Driver-Model | Bus-Id          Disp.A | Volatile Uncorr. ECC | | Fan  Temp   Perf          Pwr:Usage/Cap |           Memory-Usage | GPU-Util  Compute M. | |                                         |                        |               MIG M. | |=========================================+========================+======================| |   0  NVIDIA GeForce RTX 4080 ...  WDDM  |   00000000:01:00.0  On |                  N/A | |  0%   37C    P8             12W /  320W |     723MiB /  16376MiB |      0%      Default | |                                         |                        |                  N/A | +-----------------------------------------+------------------------+----------------------+                                                                                           +-----------------------------------------------------------------------------------------+ | Processes:                                                                              | |  GPU   GI   CI        PID   Type   Process name                              GPU Memory | |        ID   ID                                                               Usage      | |=========================================================================================| |    0   N/A  N/A      4472    C+G   ...nt.CBS_cw5n1h2txyewy\SearchHost.exe      N/A      | |    0   N/A  N/A      4588    C+G   C:\Windows\explorer.exe                     N/A      | |    0   N/A  N/A      6704    C+G   ...7.0_x64__cv1g1gvanyjgm\WhatsApp.exe      N/A      | |    0   N/A  N/A      8320    C+G   ...Programs\Microsoft VS Code\Code.exe      N/A      | |    0   N/A  N/A      9164    C+G   ...CBS_cw5n1h2txyewy\TextInputHost.exe      N/A      | |    0   N/A  N/A     10324    C+G   ...5n1h2txyewy\ShellExperienceHost.exe      N/A      | |    0   N/A  N/A     10644    C+G   ....0_x64__kzh8wxbdkxb8p\DCv2\DCv2.exe      N/A      | |    0   N/A  N/A     11368    C+G   ...siveControlPanel\SystemSettings.exe      N/A      | |    0   N/A  N/A     13396    C+G   ...on\125.0.2535.79\msedgewebview2.exe      N/A      | |    0   N/A  N/A     13732    C+G   ...R\AppData\Roaming\Zoom\bin\Zoom.exe      N/A      | |    0   N/A  N/A     14032    C+G   ...GeForce Experience\NVIDIA Share.exe      N/A      | |    0   N/A  N/A     16100    C+G   ...oogle\Chrome\Application\chrome.exe      N/A      | |    0   N/A  N/A     16116    C+G   ...on\125.0.2535.85\msedgewebview2.exe      N/A      | |    0   N/A  N/A     16692    C+G   ...2txyewy\StartMenuExperienceHost.exe      N/A      | |    0   N/A  N/A     18100    C+G   ...ekyb3d8bbwe\PhoneExperienceHost.exe      N/A      | |    0   N/A  N/A     18560    C+G   ...__8wekyb3d8bbwe\WindowsTerminal.exe      N/A      | |    0   N/A  N/A     19328    C+G   ...crosoft\Edge\Application\msedge.exe      N/A      | +-----------------------------------------------------------------------------------------+
cmd: Terminal application is not running.
Python File :Python process is running.
===========================END===================

===================2024-06-06 09:00:37========================
CPU Load Percentage: 10%
Free Physical Memory: 9017120 KB
Total Visible Memory: 16615192 KB
GPU Usage:
Thu Jun  6 09:00:36 2024        +-----------------------------------------------------------------------------------------+ | NVIDIA-SMI 555.85                 Driver Version: 555.85         CUDA Version: 12.5     | |-----------------------------------------+------------------------+----------------------+ | GPU  Name                  Driver-Model | Bus-Id          Disp.A | Volatile Uncorr. ECC | | Fan  Temp   Perf          Pwr:Usage/Cap |           Memory-Usage | GPU-Util  Compute M. | |                                         |                        |               MIG M. | |=========================================+========================+======================| |   0  NVIDIA GeForce RTX 4080 ...  WDDM  |   00000000:01:00.0  On |                  N/A | |  0%   37C    P8             12W /  320W |     725MiB /  16376MiB |      5%      Default | |                                         |                        |                  N/A | +-----------------------------------------+------------------------+----------------------+                                                                                           +-----------------------------------------------------------------------------------------+ | Processes:                                                                              | |  GPU   GI   CI        PID   Type   Process name                              GPU Memory | |        ID   ID                                                               Usage      | |=========================================================================================| |    0   N/A  N/A      4472    C+G   ...nt.CBS_cw5n1h2txyewy\SearchHost.exe      N/A      | |    0   N/A  N/A      4588    C+G   C:\Windows\explorer.exe                     N/A      | |    0   N/A  N/A      6704    C+G   ...7.0_x64__cv1g1gvanyjgm\WhatsApp.exe      N/A      | |    0   N/A  N/A      8320    C+G   ...Programs\Microsoft VS Code\Code.exe      N/A      | |    0   N/A  N/A      9164    C+G   ...CBS_cw5n1h2txyewy\TextInputHost.exe      N/A      | |    0   N/A  N/A     10324    C+G   ...5n1h2txyewy\ShellExperienceHost.exe      N/A      | |    0   N/A  N/A     10644    C+G   ....0_x64__kzh8wxbdkxb8p\DCv2\DCv2.exe      N/A      | |    0   N/A  N/A     11368    C+G   ...siveControlPanel\SystemSettings.exe      N/A      | |    0   N/A  N/A     13396    C+G   ...on\125.0.2535.79\msedgewebview2.exe      N/A      | |    0   N/A  N/A     13732    C+G   ...R\AppData\Roaming\Zoom\bin\Zoom.exe      N/A      | |    0   N/A  N/A     14032    C+G   ...GeForce Experience\NVIDIA Share.exe      N/A      | |    0   N/A  N/A     16100    C+G   ...oogle\Chrome\Application\chrome.exe      N/A      | |    0   N/A  N/A     16116    C+G   ...on\125.0.2535.85\msedgewebview2.exe      N/A      | |    0   N/A  N/A     16692    C+G   ...2txyewy\StartMenuExperienceHost.exe      N/A      | |    0   N/A  N/A     18100    C+G   ...ekyb3d8bbwe\PhoneExperienceHost.exe      N/A      | |    0   N/A  N/A     18560    C+G   ...__8wekyb3d8bbwe\WindowsTerminal.exe      N/A      | |    0   N/A  N/A     19328    C+G   ...crosoft\Edge\Application\msedge.exe      N/A      | +-----------------------------------------------------------------------------------------+
cmd: Terminal application is not running.
Python File :No Python process is running.
===========================END===================

===================2024-06-06 09:00:46========================
CPU Load Percentage: 6%
Free Physical Memory: 9070252 KB
Total Visible Memory: 16615192 KB
GPU Usage:
Thu Jun  6 09:00:45 2024        +-----------------------------------------------------------------------------------------+ | NVIDIA-SMI 555.85                 Driver Version: 555.85         CUDA Version: 12.5     | |-----------------------------------------+------------------------+----------------------+ | GPU  Name                  Driver-Model | Bus-Id          Disp.A | Volatile Uncorr. ECC | | Fan  Temp   Perf          Pwr:Usage/Cap |           Memory-Usage | GPU-Util  Compute M. | |                                         |                        |               MIG M. | |=========================================+========================+======================| |   0  NVIDIA GeForce RTX 4080 ...  WDDM  |   00000000:01:00.0  On |                  N/A | |  0%   37C    P8             12W /  320W |     722MiB /  16376MiB |      1%      Default | |                                         |                        |                  N/A | +-----------------------------------------+------------------------+----------------------+                                                                                           +-----------------------------------------------------------------------------------------+ | Processes:                                                                              | |  GPU   GI   CI        PID   Type   Process name                              GPU Memory | |        ID   ID                                                               Usage      | |=========================================================================================| |    0   N/A  N/A      4472    C+G   ...nt.CBS_cw5n1h2txyewy\SearchHost.exe      N/A      | |    0   N/A  N/A      4588    C+G   C:\Windows\explorer.exe                     N/A      | |    0   N/A  N/A      6704    C+G   ...7.0_x64__cv1g1gvanyjgm\WhatsApp.exe      N/A      | |    0   N/A  N/A      8320    C+G   ...Programs\Microsoft VS Code\Code.exe      N/A      | |    0   N/A  N/A      9164    C+G   ...CBS_cw5n1h2txyewy\TextInputHost.exe      N/A      | |    0   N/A  N/A     10324    C+G   ...5n1h2txyewy\ShellExperienceHost.exe      N/A      | |    0   N/A  N/A     10644    C+G   ....0_x64__kzh8wxbdkxb8p\DCv2\DCv2.exe      N/A      | |    0   N/A  N/A     11368    C+G   ...siveControlPanel\SystemSettings.exe      N/A      | |    0   N/A  N/A     13396    C+G   ...on\125.0.2535.79\msedgewebview2.exe      N/A      | |    0   N/A  N/A     13732    C+G   ...R\AppData\Roaming\Zoom\bin\Zoom.exe      N/A      | |    0   N/A  N/A     14032    C+G   ...GeForce Experience\NVIDIA Share.exe      N/A      | |    0   N/A  N/A     16100    C+G   ...oogle\Chrome\Application\chrome.exe      N/A      | |    0   N/A  N/A     16116    C+G   ...on\125.0.2535.85\msedgewebview2.exe      N/A      | |    0   N/A  N/A     16692    C+G   ...2txyewy\StartMenuExperienceHost.exe      N/A      | |    0   N/A  N/A     18100    C+G   ...ekyb3d8bbwe\PhoneExperienceHost.exe      N/A      | |    0   N/A  N/A     18560    C+G   ...__8wekyb3d8bbwe\WindowsTerminal.exe      N/A      | |    0   N/A  N/A     19328    C+G   ...crosoft\Edge\Application\msedge.exe      N/A      | +-----------------------------------------------------------------------------------------+
cmd: Terminal application is not running.
Python File :No Python process is running.
===========================END===================
